"LightmappedGeneric"
{
	"$basetexture" "liquids/!c1a4w00"
	"$envmap" "env_cubemap"
	"%compilewater" 1
	"$watertimefreq1" 0.80
	"$watertimefreq2" 1
	"$waterwaveheight" 1
	"$waterwavelength" 256
	"$waterdepth" 64
	"$waterspecularmin" 0.00
	"$waterspecularmax" 0.20
	"$watercolor" "[ 0.30 1.00 0.20 ]"
	"$watermurkiness" 1
	"$waterbasefactor" 0.20
	"$waterbasemovementdist" 0.10
	"$waterbasemovementfreq" 25
	"$surfaceprop" "water"
}
