"LightmappedGeneric"
{
	"$basetexture" "liquids/!rwater3"
	"%compilewater" 1
	"$watertimefreq1" 0.50
	"$watertimefreq2" 0.62
	"$waterwaveheight" 0.25
	"$waterwavelength" 256
	"$waterdepth" 64
	"$waterspecularmin" 0.40
	"$waterspecularmax" 0.75
	"$watercolor" "[ 0.10 0.13 0.14 ]"
	"$watermurkiness" 0.85
	"$waterbasefactor" 0.20
	"$waterbasemovementdist" 0.01
	"$waterbasemovementfreq" 20
	"$surfaceprop" "water"
}
