"UnlitGeneric"
{
	// Original shader: BaseTexture
	"$basetexture" "xeno/scrollxen4b"
	"Proxies"
	{
		"TextureScroll"
		{
			"texturescrollvar" "$basetexturetransform"
			"texturescrollrate" 2.00
			"texturescrollangle" 90.00
		}
	}
}
