"vertexlitgeneric"
{
	// original shader: basetimeslightmapalphablend
	"%compilepassbullets" 1
	"$alphatest" 1
	"$detail" "detail/detail_noise1"
	"$detailscale" 2.5
	"$basetexture" "halflife/{rail1c"
	"$surfaceprop" "metal"
}
