"UnlitGeneric"
{
	// Original shader: DecalSpecularCubicEnvMap
	"%tooltexture" "Decals/c1a1splash"
	"$envmap" "Environment Maps/c1a0a05"
	"$envmapmask" "Decals/c1a1splashr"
	"$additive" 1
	"$decal" 1
	"$envmaptint" "[ 0.50 0.50 0.50 ]"
}
