"UnlitGeneric"
{
	// Original shader: DecalSpecularCubicEnvMap
	"%tooltexture" "Decals/c1a4bsplash"
	"$envmap" "Environment Maps/c1a4b00"
	"$envmapmask" "Decals/c1a4bsplashr"
	"$additive" 1
	"$decal" 1
	"$envmaptint" "[ 0.15 0.20 0.45 ]"
}
