"vertexlitgeneric"
{
	// original shader: basetimeslightmapselfillum
	"$detail" "detail/detail_noise1"
	"$detailscale" 2.5
	"$basetexture" "halflife/~tracklite"
	"$selfillum" 1
	"$surfaceprop" "glass"
}
