"Water"
{
//for coast_08

	"$abovewater" 1
	"%compilewater" 1
	"$forceexpensive" 1
	"$reflectentities" 0
	"$envmap" "env_cubemap"
	"%tooltexture" "rp_sectorc_s_f/nature/water_frame01_normal"
	"$refracttexture" "_rt_WaterRefraction"
	"$refractamount" "1"

	"$reflecttexture" "_rt_WaterReflection"
	"$reflectamount" "1.1"

	"$scale" "[1 1]"

	"$bumpmap" "rp_sectorc_s_f/nature/water_coast01_dudv"
	"$normalmap" "nature/water_coast01_normal"

	"$surfaceprop" "water"
	"$bottommaterial" "rp_sectorc_s_f/nature/water_coast01_beneath"
	"$bumpframe" "0"

	"$fogenable" 1
	"$fogcolor" "{7 16 18}"
	"srgb?$fogcolor" "{31 43 49}"
//	"$fogcolor" "{15 32 36}"
//	"$fogcolor" "{22 47 53}"
	"$fogstart" 1.00
	"$fogend" 50.00

	"$scroll1" "[.01 .01 .05]"
	"$scroll2" "[-.025 .025 .075]"

	"Proxies"
	{
		"TextureScroll"
		{
			"texturescrollvar" "$bumptransform"
			"texturescrollrate" .02
			"texturescrollangle" 25.00
		}
		"WaterLOD"
		{
		}
			
	}

}
