"vertexlitgeneric"
{
	// original shader: basetimeslightmapselfillum
	"$detail" "detail/detail_noise1"
	"$detailscale" 2.5
	"$basetexture" "halflife/~lab_crt7"
	"$selfillum" 1
	"$surfaceprop" "glass"
	"proxies"
	{
		"animatedtexture"
		{
			"animatedtexturevar" "$basetexture"
			"animatedtextureframenumvar" "$frame"
			"animatedtextureframerate" 10
		}
	}
}
