"LightmappedGeneric"
{
	"$baseTexture" "rp_sectorc_s_f/concrete/asphalt_highway3_tile"
    "$bumpmap" "rp_sectorc_s_f/concrete/asphalt_highway3_n"	

	"$envmap" "env_cubemap"
	"$normalmapalphaenvmapmask" 1
//	"$envmapmask" "rp_sectorc_s_f/concrete/asphalt_highway3_tile_s"
	"$envmapsaturation" 1
	"$envmapcontrast" 1
	"$envmaptint" "[ 1 1 1 ]"
	
    "$detail" "rp_sectorc_s_f/detail/bm_concrete_detail_01"
	"$detailscale" "6.283"
	"$detailblendfactor" .8
	"$detailblendmode" 0
	
	"$phong" "1"
	"$phongexponent" "35"
	"$phongboost" "5"
	"$phongfresnelranges"	"[0.4 0.9 2.6]"
	"$phongalbedotint" "1"


	"$surfaceprop" "concrete"
	"%keywords" "bms"
}
