"LightmappedGeneric"
{
	"$basetexture" "rp_sectorc_s_f/Concrete/computerwall007"
	"%keywords" "tf"
	"$detail" "rp_sectorc_s_f/overlays/detail001"
	"$detailscale" "1.9"
	"$detailblendmode" "0"
	"$detailblendfactor" "1"
}
