"vertexlitgeneric"
{
	// original shader: basetimeslightmapplusmaskedsphericalenvmap
	"$detail" "detail/detail_noise1"
	"$detailscale" 2.5
	"$basetexture" "halflife/lab1_stair2a"
	"$envmapsphere" 1
	"$envmap" "environment maps/envmap001a"
	"$envmapmask" "halflife/lab1_stair2ar"
	"$surfaceprop" "metalgrate"
}
