"vertexlitgeneric"
{
	// original shader: basetimeslightmap
	"$detail" "detail/detail_noise1"
	"$detailscale" 2.5
	"$basetexture" "custom/c1a0/bm_c1a0_labw6"
	"$surfaceprop" "metal"
	"$envmap" "environment maps/envmap001a"
	"$bumpmap" "custom/c1a0/bm_c1a0_labw6_normal"
	"$basealphaenvmapmask" "1"
	"$envmapcontrast" 1
	"$envmaptint" "[ .5 .5 .5 ]"
}
