"vertexlitgeneric"
{
	// original shader: basetimeslightmapselfillum
	"$basetexture" "halflife/~lab_crt2"
	"$selfillum" 1
	"$surfaceprop" "computer"
	"proxies"
	{
		"animatedtexture"
		{
			"animatedtexturevar" "$basetexture"
			"animatedtextureframenumvar" "$frame"
			"animatedtextureframerate" 8
		}
	}
}
