"UnlitGeneric"
{
	// Original shader: BaseTimesLightmap
	"$detail" "rp_sectorc_s_f/detail/detail_noise1"
	"$detailscale" 2.5
	"$basetexture" "rp_sectorc_s_f/halflife/+0~light1"
	"$surfaceprop" "glass"
	"Proxies"
	{
		"ToggleTexture"
		{
			"toggletexturevar" "rp_sectorc_s_f/$basetexture"
			"toggletextureframenumvar" "$frame"
		}
	}
}
