"LightmappedGeneric"
{
	// Original shader: BaseTimesLightmapSelfIllum
	"$detail" "rp_sectorc_s_f/detail/detail_noise1"
	"$detailscale" 2.5
	"$basetexture" "rp_sectorc_s_f/halflife/+a~lab1_sw1"
	"$selfillum" 1
	"$surfaceprop" "computer"
	"Proxies"
	{
		"ToggleTexture"
		{
			"toggletexturevar" "rp_sectorc_s_f/$basetexture"
			"toggletextureframenumvar" "$frame"
		}
	}
}
