"LightmappedGeneric"
{
	// Original shader: BaseTimesLightmap
	"$detail" "rp_sectorc_s_f/detail/detail_noise1"
	"$detailscale" 2.5
	"$basetexture" "rp_sectorc_s_f/halflife/-1out_c3b"
	"$surfaceprop" "metal"
}
