"LightmappedGeneric"
{
	// Original shader: BaseTimesLightmap
	"$detail" "rp_sectorc_s_f/detail/detail_noise1"
	"$detailscale" 2.5
	"$basetexture" "rp_sectorc_s_f/halflife/c3a2a_w1l"
	"$surfaceprop" "metal"
}
