"LightmappedGeneric"
{
	// Original shader: BaseTimesLightmap
	"$detail" "rp_sectorc_s_f/detail/detail_noise1"
	"$detailscale" 2.5
	"$basetexture" "rp_sectorc_s_f/halflife/fifties_flr02"
	"$surfaceprop" "tile"
	"$envmap" "environment maps/envmap001a"
	"$basealphaenvmapmask" "1"
	"$envmapcontrast" 3
	"$envmaptint" "[ .3 .3 .3 ]"
}
