"LightmappedGeneric"
{
	// Original shader: BaseTimesLightmapAlphaBlend
	"%compilepassbullets" 1
	"$alphatest" 1
	"$detail" "rp_sectorc_s_f/detail/detail_noise1"
	"$detailscale" 2.5
	"$basetexture" "rp_sectorc_s_f/halflife/{duct_vnt"
	"$surfaceprop" "metalgrate"
}
