"LightmappedGeneric"
{
	// Original shader: BaseTimesLightmapSelfIllum
	"$detail" "rp_sectorc_s_f/detail/detail_noise1"
	"$detailscale" 2.5
	"$basetexture" "rp_sectorc_s_f/halflife/~lab_crt2"
	"$selfillum" 1
	"$surfaceprop" "computer"
	"Proxies"
	{
		"AnimatedTexture"
		{
			"animatedtexturevar" "rp_sectorc_s_f/$basetexture"
			"animatedtextureframenumvar" "$frame"
			"animatedtextureframerate" 8
		}
	}
}
