"LightmappedGeneric"
{
	"$detail" "detail/detail_noise1"
	"$detailscale" 2.5
	"$basetexture" "halflife/!c1a4dw00"
	"$envmap" "env_cubemap"
	"%compilewater" 1
	"$watertimefreq1" 0.50
	"$watertimefreq2" 0.62
	"$waterwaveheight" 1
	"$waterwavelength" 256
	"$waterdepth" 64
	"$waterspecularmin" 0.10
	"$waterspecularmax" 0.30
	"$watercolor" "[ 0.62 0.80 0.32 ]"
	"$watermurkiness" 0.80
	"$waterbasefactor" 0.30
	"$waterbasemovementdist" 0.10
	"$waterbasemovementfreq" 20
	"$surfaceprop" "water"
}
