"LightmappedGeneric"
{
	"$detail" "detail/detail_noise1"
	"$detailscale" 2.5
	"$basetexture" "halflife/!c1a4gw01"
	"$envmap" "env_cubemap"
	"%compilewater" 1
	"$watertimefreq1" 0.50
	"$watertimefreq2" 0.62
	"$waterwaveheight" 3
	"$waterwavelength" 256
	"$waterdepth" 64
	"$waterspecularmin" 0.00
	"$waterspecularmax" 0.20
	"$watercolor" "[ 0.10 1.00 0.10 ]"
	"$watermurkiness" 1
	"$waterbasefactor" 0.40
	"$waterbasemovementdist" 0.10
	"$waterbasemovementfreq" 20
	"$surfaceprop" "water"
}
