"LightmappedGeneric"
{
	"$detail" "detail/detail_noise1"
	"$detailscale" 2.5
	"$basetexture" "halflife/!c3a2fw01"
	"$envmap" "env_cubemap"
	"%compilewater" 1
	"$watertimefreq1" 0.50
	"$watertimefreq2" 0.62
	"$waterwaveheight" 0.15
	"$waterwavelength" 256
	"$waterdepth" 64
	"$waterspecularmin" 0
	"$waterspecularmax" 1
	"$watercolor" "[ 0.60 1.00 0.20 ]"
	"$watermurkiness" 0.90
	"$waterbasefactor" 0.80
	"$waterbasemovementdist" 0.20
	"$waterbasemovementfreq" 20
	"$surfaceprop" "water"
}
