"UnlitGeneric"
{
	// Original shader: BaseTimesLightmap
	"$detail" "detail/detail_noise1"
	"$detailscale" 2.5
	"$basetexture" "halflife/+0~generic78b"
	"$surfaceprop" "default"
	"Proxies"
	{
		"ToggleTexture"
		{
			"toggletexturevar" "$basetexture"
			"toggletextureframenumvar" "$frame"
		}
	}
}
