"LightmappedGeneric"
{
	// Original shader: BaseTimesLightmapSelfIllum
	"$detail" "detail/detail_noise1"
	"$detailscale" 2.5
	"$basetexture" "halflife/+1~lab1_acs2"
	"$selfillum" 1
	"$surfaceprop" "computer"
}
