"LightmappedGeneric"
{
	// Original shader: BaseTimesLightmap
	"$detail" "detail/detail_noise1"
	"$detailscale" 2.5
	"$basetexture" "halflife/+abutton1"
	"$surfaceprop" "glass"
	"$selfillum" 1
	"Proxies"
	{
		"ToggleTexture"
		{
			"toggletexturevar" "$basetexture"
			"toggletextureframenumvar" "$frame"
		}
	}
}
