"LightmappedGeneric"
{
	// Original shader: BaseTimesLightmap
	"$detail" "detail/detail_noise1"
	"$detailscale" 2.5
	"$basetexture" "halflife/+a~elev2_pan"
	"$surfaceprop" "glass"
	"$selfillum" 1
}
