"LightmappedGeneric"
{
	// Original shader: BaseTimesLightmapPlusMaskedSphericalEnvMap
	"$detail" "detail/detail_noise1"
	"$detailscale" 2.5
	"$basetexture" "halflife/c1a1dr4"
	"$envmapsphere" 1
	"$envmap" "environment maps/envmap001a"
	"$envmapmask" "halflife/c1a1dr4r"
	"$surfaceprop" "metal"
}
