"LightmappedGeneric"
{
	// Original shader: BaseTimesLightmapPlusMaskedSphericalEnvMap
	"$detail" "detail/detail_noise1"
	"$detailscale" 2.5
	"$basetexture" "halflife/c2a2a_sign5a"
	"$envmapsphere" 1
	"$envmap" "environment maps/envmap001a"
	"$envmapmask" "halflife/c2a2a_sign5ar"
	"$surfaceprop" "metal"
}
