"LightmappedGeneric"
{
	// Original shader: BaseTimesLightmapPlusMaskedSphericalEnvMap
	"$detail" "detail/detail_noise1"
	"$detailscale" 2.5
	"$basetexture" "halflife/duct_flr01a"
	"$envmap" "environment maps/ductenv1"
	"$surfaceprop" "metalvent"
	"$basealphaenvmapmask" "1"
	"$envmapcontrast" 2
	"$envmaptint" "[ .7 .7 .7 ]"
}
