"LightmappedGeneric"
{
	// Original shader: BaseTimesLightmap
	"$detail" "detail/detail_noise1"
	"$detailscale" 2.5
	"$basetexture" "halflife/fifties_cmp4c"
	"$surfaceprop" "metal"
	"$envmap" "environment maps/envmap001a"
	"$basealphaenvmapmask" "1"
	"$envmapcontrast" 2
	"$envmaptint" "[ .5 .5 .5 ]"
}
