"LightmappedGeneric"
{
	// Original shader: BaseTimesLightmapAlphaBlend
	"$translucent" 1
	"$detail" "detail/detail_noise1"
	"$detailscale" 2.5
	"$basetexture" "halflife/generic104c"
	"$surfaceprop" "metal"
}
