"LightmappedGeneric"
{
	// Original shader: WorldAdditiveTransCubicEnvMapWithMaskedTexture
	"$basealphaenvmapmask" 1
	"$detail" "detail/detail_noise1"
	"$detailscale" 2.5
	"$basetexture" "halflife/glass_c2a4f05"
	"$envmap" "environment maps/c2a4f05"
	"$surfaceprop" "glass"
}
