"LightmappedGeneric"
{
	// Original shader: WorldAdditiveTransCubicEnvMapWithMaskedTexture
	"$basealphaenvmapmask" 1
	"$detail" "detail/detail_noise1"
	"$detailscale" 2.5
	"$basetexture" "halflife/glass_c1a3"
	"$envmap" "environment maps/c1a300"
	"$surfaceprop" "glass"
}
