"LightmappedGeneric"
{
	// Original shader: SphericalEnvMapBlendMaskedBaseTimesLightmap
	"$envmapsphere" 1
	"$basealphaenvmapmask" 1
	"$detail" "detail/detail_noise1"
	"$detailscale" 2.5
	"$basetexture" "halflife/lab1_b4"
	"$envmap" "environment maps/envmap001a"
	"$surfaceprop" "metal"
}
