"LightmappedGeneric"
{
	// Original shader: BaseTimesLightmap
	"$detail" "detail/detail_noise1"
	"$detailscale" 2.5
	"$basetexture" "halflife/lab1_brd4"
	"$surfaceprop" "metal"
	"$envmap" "environment maps/envmap001a"
	"$basealphaenvmapmask" "1"
	"$envmapcontrast" 3
	"$envmaptint" "[ .25 .25 .25 ]"
}
