"LightmappedGeneric"
{
	// Original shader: BaseTimesLightmap
	"$detail" "detail/detail_noise1"
	"$detailscale" 2.5
	"$basetexture" "halflife/lab1_door1c"
	"$surfaceprop" "metal"
	"$envmap" "environment maps/envmap001a"
	"$basealphaenvmapmask" "1"
	"$envmapcontrast" 2
	"$envmaptint" "[ .8 .8 .8 ]"
}
