"UnlitGeneric"
{
	// Original shader: basetexture
	"$detail" "detail/detail_noise1"
	"$detailscale" 2.5
	"$basetexture" "halflife/waterf"
//	"$bottommaterial" "halflife/waterf_beneath"
	"Proxies"
	{
		"TextureScroll"
		{
			"texturescrollvar" "$basetexturetransform"
			"texturescrollrate" 3.00
			"texturescrollangle" 270.00
		}
	}
}
