"LightmappedGeneric"
{
	// Original shader: BaseTimesLightmapAlphaBlend
	"%compilepassbullets" 1
	"$alphatest" 1
	"$detail" "detail/detail_noise1"
	"$detailscale" 2.5
	"$basetexture" "halflife/{grid2"
	"$surfaceprop" "metalgrate"
}
