"LightmappedGeneric"
{
	// Original shader: BaseTimesLightmapSelfIllum
	"$detail" "detail/detail_noise1"
	"$detailscale" 2.5
	"$basetexture" "halflife/~lab1_comp3d"
	"$selfillum" 1
	"$surfaceprop" "computer"
}
