"LightmappedGeneric"
{
	// Original shader: BaseTimesLightmapSelfIllum
	"$detail" "detail/detail_noise1"
	"$detailscale" 2.5
	"$basetexture" "halflife/~lab_crt8"
	"$selfillum" 1
	"$surfaceprop" "computer"
	"Proxies"
	{
		"AnimatedTexture"
		{
			"animatedtexturevar" "$basetexture"
			"animatedtextureframenumvar" "$frame"
			"animatedtextureframerate" 8
		}
	}
}
