"LightmappedGeneric"
{
	// Original shader: BaseTimesLightmapSelfIllum
	"$detail" "detail/detail_noise1"
	"$detailscale" 2.5
	"$basetexture" "halflife/~trn_lt1b"
	"$selfillum" 1
	"$surfaceprop" "glass"
}
