"vertexlitgeneric"
{
	// original shader: basetimeslightmapselfillum
	"$detail" "detail/detail_noise1"
	"$detailscale" 2.5
	"$basetexture" "halflife/drkmtl_scrn"
	"$selfillum" 1
	"$surfaceprop" "computer"

	"proxies"
	{
		"animatedtexture"
		{
			"animatedtexturevar" "$basetexture"
			"animatedtextureframenumvar" "$frame"
			"animatedtextureframerate" 8
		}
	}
}
